…
A pretty steep increase in suicides per 100k up until the big spike from 1994-1995, then overall decreasing with some small increases between years

``` r



df %>% 
  group_by(year) %>%
  summarise(suicides100k = sum(mean(suicides.100k.pop)))
```

    ## # A tibble: 31 × 2
    ##     year suicides100k
    ##    <int>        <dbl>
    ##  1  1985         11.8
    ##  2  1986         11.4
    ##  3  1987         11.6
    ##  4  1988         12.7
    ##  5  1989         12.9
    ##  6  1990         12.9
    ##  7  1991         13.4
    ##  8  1992         13.5
    ##  9  1993         13.8
    ## 10  1994         14.1
    ## # ℹ 21 more rows

``` r
df %>%
  group_by(year) %>%
  summarize(sum(population))
```

    ## # A tibble: 31 × 2
    ##     year `sum(population)`
    ##    <int>             <int>
    ##  1  1985        1008600086
    ##  2  1986        1029909613
    ##  3  1987        1095029726
    ##  4  1988        1054094424
    ##  5  1989        1225514347
    ##  6  1990        1466620100
    ##  7  1991        1489988384
    ##  8  1992        1569539447
    ##  9  1993        1530416654
    ## 10  1994        1548749372
    ## # ℹ 21 more rows

``` r
df %>% 
  group_by(year) %>%
  summarise(Suicides = mean(sum(suicides_no)))
```

    ## # A tibble: 31 × 2
    ##     year Suicides
    ##    <int>    <dbl>
    ##  1  1985   116063
    ##  2  1986   120670
    ##  3  1987   126842
    ##  4  1988   121026
    ##  5  1989   160244
    ##  6  1990   193361
    ##  7  1991   198020
    ##  8  1992   211473
    ##  9  1993   221565
    ## 10  1994   232063
    ## # ℹ 21 more rows
…
``` r
#getting numbers of these graphs for comparison purposes
df %>% 
  group_by(country) %>%
  summarise(suicides100k = sum(mean(suicides.100k.pop)))
```

    ## # A tibble: 100 × 2
    ##    country             suicides100k
    ##    <chr>                      <dbl>
    ##  1 Albania                    3.50 
    ##  2 Antigua and Barbuda        0.553
    ##  3 Argentina                 10.5  
    ##  4 Armenia                    3.25 
    ##  5 Aruba                      9.50 
    ##  6 Australia                 13.0  
    ##  7 Austria                   23.9  
    ##  8 Azerbaijan                 1.86 
    ##  9 Bahamas                    1.25 
    ## 10 Bahrain                    1.85 
    ## # ℹ 90 more rows
…
``` r
  #to get the numbers of it
df %>%
  group_by(country, sex) %>%
  summarise(suicides100k = sum(mean(suicides.100k.pop)))
```

    ## `summarise()` has grouped output by 'country'. You can override using the
    ## `.groups` argument.

    ## # A tibble: 200 × 3
    ## # Groups:   country [100]
    ##    country             sex    suicides100k
    ##    <chr>               <chr>         <dbl>
    ##  1 Albania             female       2.42  
    ##  2 Albania             male         4.59  
    ##  3 Antigua and Barbuda female       0.0964
    ##  4 Antigua and Barbuda male         1.01  
    ##  5 Argentina           female       3.80  
    ##  6 Argentina           male        17.1   
    ##  7 Armenia             female       1.62  
    ##  8 Armenia             male         4.88  
    ##  9 Aruba               female       3.29  
    ## 10 Aruba               male        15.7   
    ## # ℹ 190 more rows
…
